Level 2.0. Quality Assured Data.<p>The following data are pre and post field calibrated, automatically cloud cleared and manually inspected.
Version 2 Direct Sun Algorithm
Location=Berlin_FUB,long=13.310,lat=52.458,elev=80,Nmeas=7,PI=Thomas_Ruhtz,Email=Thomas.Ruhtz@fu-berlin.de
AOD Level 2.0,Daily Averages,UNITS can be found at,,, http://aeronet.gsfc.nasa.gov/data_menu.html
Date(dd-mm-yy),Time(hh:mm:ss),Julian_Day,AOT_1640,AOT_1020,AOT_870,AOT_675,AOT_667,AOT_555,AOT_551,AOT_532,AOT_531,AOT_500,AOT_490,AOT_443,AOT_440,AOT_412,AOT_380,AOT_340,Water(cm),%TripletVar_1640,%TripletVar_1020,%TripletVar_870,%TripletVar_675,%TripletVar_667,%TripletVar_555,%TripletVar_551,%TripletVar_532,%TripletVar_531,%TripletVar_500,%TripletVar_490,%TripletVar_443,%TripletVar_440,%TripletVar_412,%TripletVar_380,%TripletVar_340,%WaterError,440-870Angstrom,380-500Angstrom,440-675Angstrom,500-870Angstrom,340-440Angstrom,440-675Angstrom(Polar),N[AOT_1640],N[AOT_1020],N[AOT_870],N[AOT_675],N[AOT_667],N[AOT_555],N[AOT_551],N[AOT_532],N[AOT_531],N[AOT_500],N[AOT_490],N[AOT_443],N[AOT_440],N[AOT_412],N[AOT_380],N[AOT_340],N[Water(cm)],N[440-870Angstrom],N[380-500Angstrom],N[440-675Angstrom],N[500-870Angstrom],N[340-440Angstrom],N[440-675Angstrom(Polar)]
06-07-2014,00:00:00,187.000000,0.025799,0.042693,0.059786,0.099144,N/A,N/A,N/A,N/A,N/A,0.183020,N/A,N/A,0.229427,N/A,0.297866,0.349975,3.181374,N/A,N/A,N/A,N/A,N/A,N/A,N/A,N/A,N/A,N/A,N/A,N/A,N/A,N/A,N/A,N/A,N/A,2.002052,1.768627,1.994908,2.031777,1.603493,N/A,7,7,7,7,N/A,N/A,N/A,N/A,N/A,7,N/A,N/A,7,N/A,7,7,7,7,7,7,7,7,N/A
07-07-2014,00:00:00,188.000000,0.026216,0.055261,0.074428,0.126556,N/A,N/A,N/A,N/A,N/A,0.217323,N/A,N/A,0.263491,N/A,0.319677,0.350260,3.208563,N/A,N/A,N/A,N/A,N/A,N/A,N/A,N/A,N/A,N/A,N/A,N/A,N/A,N/A,N/A,N/A,N/A,1.876944,1.400916,1.753486,1.946532,1.086152,N/A,9,9,9,9,N/A,N/A,N/A,N/A,N/A,9,N/A,N/A,9,N/A,9,9,9,9,9,9,9,9,N/A
02-08-2014,00:00:00,214.000000,0.038061,0.073391,0.106217,0.168830,N/A,N/A,N/A,N/A,N/A,0.275362,N/A,N/A,0.324232,N/A,0.395281,0.439182,3.080113,N/A,N/A,N/A,N/A,N/A,N/A,N/A,N/A,N/A,N/A,N/A,N/A,N/A,N/A,N/A,N/A,N/A,1.660423,1.314247,1.559231,1.729168,1.156834,N/A,5,5,5,5,N/A,N/A,N/A,N/A,N/A,5,N/A,N/A,5,N/A,5,5,5,5,5,5,5,5,N/A
03-08-2014,00:00:00,215.000000,0.029080,0.049447,0.072275,0.118506,N/A,N/A,N/A,N/A,N/A,0.196607,N/A,N/A,0.234744,N/A,0.291772,0.322909,3.418390,N/A,N/A,N/A,N/A,N/A,N/A,N/A,N/A,N/A,N/A,N/A,N/A,N/A,N/A,N/A,N/A,N/A,1.751165,1.436117,1.630042,1.820493,1.218453,N/A,9,9,9,9,N/A,N/A,N/A,N/A,N/A,9,N/A,N/A,9,N/A,9,9,9,9,9,9,9,9,N/A
05-08-2014,00:00:00,217.000000,0.053587,0.070473,0.087473,0.125281,N/A,N/A,N/A,N/A,N/A,0.192289,N/A,N/A,0.228066,N/A,0.275130,0.297647,2.748828,N/A,N/A,N/A,N/A,N/A,N/A,N/A,N/A,N/A,N/A,N/A,N/A,N/A,N/A,N/A,N/A,N/A,1.435145,1.306028,1.427846,1.446199,1.018024,N/A,11,11,11,11,N/A,N/A,N/A,N/A,N/A,11,N/A,N/A,11,N/A,11,11,11,11,11,11,11,11,N/A
06-08-2014,00:00:00,218.000000,0.032128,0.052532,0.079426,0.129540,N/A,N/A,N/A,N/A,N/A,0.210135,N/A,N/A,0.250071,N/A,0.313016,0.346645,2.027639,N/A,N/A,N/A,N/A,N/A,N/A,N/A,N/A,N/A,N/A,N/A,N/A,N/A,N/A,N/A,N/A,N/A,1.691181,1.445400,1.561413,1.758075,1.243938,N/A,19,19,19,19,N/A,N/A,N/A,N/A,N/A,19,N/A,N/A,19,N/A,19,19,19,19,19,19,19,19,N/A
07-08-2014,00:00:00,219.000000,0.056291,0.093099,0.121323,0.185595,N/A,N/A,N/A,N/A,N/A,0.300636,N/A,N/A,0.359100,N/A,0.432295,0.474940,2.447673,N/A,N/A,N/A,N/A,N/A,N/A,N/A,N/A,N/A,N/A,N/A,N/A,N/A,N/A,N/A,N/A,N/A,1.647813,1.332218,1.598176,1.687040,1.079754,N/A,3,3,3,3,N/A,N/A,N/A,N/A,N/A,3,N/A,N/A,3,N/A,3,3,3,3,3,3,3,3,N/A
08-08-2014,00:00:00,220.000000,0.037672,0.084635,0.123422,0.205682,N/A,N/A,N/A,N/A,N/A,0.340708,N/A,N/A,0.404398,N/A,0.484777,0.525551,2.389814,N/A,N/A,N/A,N/A,N/A,N/A,N/A,N/A,N/A,N/A,N/A,N/A,N/A,N/A,N/A,N/A,N/A,1.774226,1.308557,1.632519,1.854578,1.034480,N/A,20,20,20,20,N/A,N/A,N/A,N/A,N/A,20,N/A,N/A,20,N/A,20,20,20,20,20,20,20,20,N/A
09-08-2014,00:00:00,221.000000,0.024472,0.037371,0.052135,0.084701,N/A,N/A,N/A,N/A,N/A,0.145003,N/A,N/A,0.177116,N/A,0.224359,0.249642,2.868518,N/A,N/A,N/A,N/A,N/A,N/A,N/A,N/A,N/A,N/A,N/A,N/A,N/A,N/A,N/A,N/A,N/A,1.823759,1.589131,1.762012,1.866254,1.311667,N/A,12,12,12,12,N/A,N/A,N/A,N/A,N/A,12,N/A,N/A,12,N/A,12,12,12,12,12,12,12,12,N/A
11-08-2014,00:00:00,223.000000,0.038686,0.063151,0.082562,0.125619,N/A,N/A,N/A,N/A,N/A,0.202468,N/A,N/A,0.242875,N/A,0.297808,0.330986,1.829314,N/A,N/A,N/A,N/A,N/A,N/A,N/A,N/A,N/A,N/A,N/A,N/A,N/A,N/A,N/A,N/A,N/A,1.591250,1.398013,1.555806,1.618190,1.171274,N/A,6,6,6,6,N/A,N/A,N/A,N/A,N/A,6,N/A,N/A,6,N/A,6,6,6,6,6,6,6,6,N/A
12-08-2014,00:00:00,224.000000,0.026727,0.037820,0.046858,0.068444,N/A,N/A,N/A,N/A,N/A,0.105798,N/A,N/A,0.127983,N/A,0.160683,0.176983,1.694771,N/A,N/A,N/A,N/A,N/A,N/A,N/A,N/A,N/A,N/A,N/A,N/A,N/A,N/A,N/A,N/A,N/A,1.489572,1.532509,1.469913,1.488903,1.246525,N/A,18,18,18,18,N/A,N/A,N/A,N/A,N/A,18,N/A,N/A,18,N/A,18,18,18,18,18,18,18,18,N/A
13-08-2014,00:00:00,225.000000,0.022172,0.029532,0.036906,0.055903,N/A,N/A,N/A,N/A,N/A,0.084562,N/A,N/A,0.102353,N/A,0.130197,0.140624,1.981672,N/A,N/A,N/A,N/A,N/A,N/A,N/A,N/A,N/A,N/A,N/A,N/A,N/A,N/A,N/A,N/A,N/A,1.491868,1.577876,1.416100,1.501921,1.231860,N/A,6,6,6,6,N/A,N/A,N/A,N/A,N/A,6,N/A,N/A,6,N/A,6,6,6,6,6,6,6,6,N/A
14-08-2014,00:00:00,226.000000,0.031791,0.043033,0.054508,0.083684,N/A,N/A,N/A,N/A,N/A,0.138554,N/A,N/A,0.170365,N/A,0.214196,0.240245,1.897633,N/A,N/A,N/A,N/A,N/A,N/A,N/A,N/A,N/A,N/A,N/A,N/A,N/A,N/A,N/A,N/A,N/A,1.701495,1.577834,1.690722,1.712385,1.313159,N/A,7,7,7,7,N/A,N/A,N/A,N/A,N/A,7,N/A,N/A,7,N/A,7,7,7,7,7,7,7,7,N/A
18-08-2014,00:00:00,230.000000,0.019049,0.029909,0.038676,0.065990,N/A,N/A,N/A,N/A,N/A,0.103134,N/A,N/A,0.127416,N/A,0.166828,0.183879,1.615854,N/A,N/A,N/A,N/A,N/A,N/A,N/A,N/A,N/A,N/A,N/A,N/A,N/A,N/A,N/A,N/A,N/A,1.756087,1.789720,1.542452,1.800104,1.426651,N/A,8,8,8,8,N/A,N/A,N/A,N/A,N/A,8,N/A,N/A,8,N/A,8,8,8,8,8,8,8,8,N/A
20-08-2014,00:00:00,232.000000,0.034681,0.047766,0.055719,0.083128,N/A,N/A,N/A,N/A,N/A,0.125966,N/A,N/A,0.156076,N/A,0.201649,0.227244,1.577726,N/A,N/A,N/A,N/A,N/A,N/A,N/A,N/A,N/A,N/A,N/A,N/A,N/A,N/A,N/A,N/A,N/A,1.491269,1.720533,1.445322,1.469596,1.429163,N/A,8,8,8,8,N/A,N/A,N/A,N/A,N/A,8,N/A,N/A,8,N/A,8,8,8,8,8,8,8,8,N/A
21-08-2014,00:00:00,233.000000,0.042657,0.092515,0.126102,0.210784,N/A,N/A,N/A,N/A,N/A,0.348876,N/A,N/A,0.420737,N/A,0.510189,0.564452,1.626650,N/A,N/A,N/A,N/A,N/A,N/A,N/A,N/A,N/A,N/A,N/A,N/A,N/A,N/A,N/A,N/A,N/A,1.784860,1.412721,1.664567,1.842554,1.151633,N/A,7,7,7,7,N/A,N/A,N/A,N/A,N/A,7,N/A,N/A,7,N/A,7,7,7,7,7,7,7,7,N/A
24-08-2014,00:00:00,236.000000,0.024722,0.054327,0.071572,0.120131,N/A,N/A,N/A,N/A,N/A,0.193756,N/A,N/A,0.232152,N/A,0.281495,0.306344,1.679780,N/A,N/A,N/A,N/A,N/A,N/A,N/A,N/A,N/A,N/A,N/A,N/A,N/A,N/A,N/A,N/A,N/A,1.730216,1.371184,1.552701,1.802453,1.072000,N/A,9,9,9,9,N/A,N/A,N/A,N/A,N/A,9,N/A,N/A,9,N/A,9,9,9,9,9,9,9,9,N/A
25-08-2014,00:00:00,237.000000,0.024194,0.045041,0.057780,0.097782,N/A,N/A,N/A,N/A,N/A,0.168765,N/A,N/A,0.213067,N/A,0.273589,0.313473,1.462952,N/A,N/A,N/A,N/A,N/A,N/A,N/A,N/A,N/A,N/A,N/A,N/A,N/A,N/A,N/A,N/A,N/A,1.920504,1.756647,1.837605,1.944254,1.473644,N/A,10,10,10,10,N/A,N/A,N/A,N/A,N/A,10,N/A,N/A,10,N/A,10,10,10,10,10,10,10,10,N/A
27-08-2014,00:00:00,239.000000,0.013988,0.022107,0.028864,0.051368,N/A,N/A,N/A,N/A,N/A,0.080080,N/A,N/A,0.099156,N/A,0.129387,0.141932,1.603980,N/A,N/A,N/A,N/A,N/A,N/A,N/A,N/A,N/A,N/A,N/A,N/A,N/A,N/A,N/A,N/A,N/A,1.783250,1.729614,1.531521,1.841545,1.350243,N/A,22,22,22,22,N/A,N/A,N/A,N/A,N/A,22,N/A,N/A,22,N/A,22,22,22,22,22,22,22,22,N/A
28-08-2014,00:00:00,240.000000,0.016249,0.022471,0.032122,0.055612,N/A,N/A,N/A,N/A,N/A,0.095244,N/A,N/A,0.120768,N/A,0.163120,0.187662,1.486282,N/A,N/A,N/A,N/A,N/A,N/A,N/A,N/A,N/A,N/A,N/A,N/A,N/A,N/A,N/A,N/A,N/A,1.935662,1.943333,1.816276,1.964732,1.664290,N/A,36,36,36,36,N/A,N/A,N/A,N/A,N/A,36,N/A,N/A,36,N/A,36,36,36,36,36,36,36,36,N/A
03-09-2014,00:00:00,246.000000,0.018212,0.029353,0.043457,0.075384,N/A,N/A,N/A,N/A,N/A,0.132723,N/A,N/A,0.164881,N/A,0.214019,0.241429,2.428929,N/A,N/A,N/A,N/A,N/A,N/A,N/A,N/A,N/A,N/A,N/A,N/A,N/A,N/A,N/A,N/A,N/A,1.968532,1.738716,1.860275,2.021606,1.461081,N/A,16,16,16,16,N/A,N/A,N/A,N/A,N/A,16,N/A,N/A,16,N/A,16,16,16,16,16,16,16,16,N/A
04-09-2014,00:00:00,247.000000,0.042310,0.065250,0.086653,0.138456,N/A,N/A,N/A,N/A,N/A,0.234234,N/A,N/A,0.289037,N/A,0.367751,0.417613,2.453260,N/A,N/A,N/A,N/A,N/A,N/A,N/A,N/A,N/A,N/A,N/A,N/A,N/A,N/A,N/A,N/A,N/A,1.796309,1.643224,1.747461,1.821345,1.397441,N/A,36,36,36,36,N/A,N/A,N/A,N/A,N/A,36,N/A,N/A,36,N/A,36,36,36,36,36,36,36,36,N/A
05-09-2014,00:00:00,248.000000,0.044848,0.057704,0.072982,0.109098,N/A,N/A,N/A,N/A,N/A,0.175440,N/A,N/A,0.214172,N/A,0.273474,0.308598,2.173233,N/A,N/A,N/A,N/A,N/A,N/A,N/A,N/A,N/A,N/A,N/A,N/A,N/A,N/A,N/A,N/A,N/A,1.602547,1.611544,1.598723,1.604961,1.388521,N/A,17,17,17,17,N/A,N/A,N/A,N/A,N/A,17,N/A,N/A,17,N/A,17,17,17,17,17,17,17,17,N/A
06-09-2014,00:00:00,249.000000,0.078122,0.114094,0.144689,0.212797,N/A,N/A,N/A,N/A,N/A,0.335414,N/A,N/A,0.399838,N/A,0.486271,0.538222,2.524839,N/A,N/A,N/A,N/A,N/A,N/A,N/A,N/A,N/A,N/A,N/A,N/A,N/A,N/A,N/A,N/A,N/A,1.542177,1.380794,1.533193,1.558322,1.158330,N/A,12,12,12,12,N/A,N/A,N/A,N/A,N/A,12,N/A,N/A,12,N/A,12,12,12,12,12,12,12,12,N/A
07-09-2014,00:00:00,250.000000,0.058126,0.124647,0.178108,0.287006,N/A,N/A,N/A,N/A,N/A,0.468163,N/A,N/A,0.552835,N/A,0.660542,0.719802,3.125304,N/A,N/A,N/A,N/A,N/A,N/A,N/A,N/A,N/A,N/A,N/A,N/A,N/A,N/A,N/A,N/A,N/A,1.706514,1.280696,1.592459,1.777213,1.040808,N/A,26,26,26,26,N/A,N/A,N/A,N/A,N/A,26,N/A,N/A,26,N/A,26,26,26,26,26,26,26,26,N/A
08-09-2014,00:00:00,251.000000,0.039187,0.084700,0.120173,0.179716,N/A,N/A,N/A,N/A,N/A,0.264992,N/A,N/A,0.301087,N/A,0.346893,0.365387,2.150359,N/A,N/A,N/A,N/A,N/A,N/A,N/A,N/A,N/A,N/A,N/A,N/A,N/A,N/A,N/A,N/A,N/A,1.415507,1.021786,1.292594,1.486794,0.780136,N/A,16,16,16,16,N/A,N/A,N/A,N/A,N/A,16,N/A,N/A,16,N/A,16,16,16,16,16,16,16,16,N/A
15-09-2014,00:00:00,258.000000,0.098994,0.121338,0.141201,0.188093,N/A,N/A,N/A,N/A,N/A,0.282852,N/A,N/A,0.337225,N/A,0.407072,0.450548,2.270707,N/A,N/A,N/A,N/A,N/A,N/A,N/A,N/A,N/A,N/A,N/A,N/A,N/A,N/A,N/A,N/A,N/A,1.304489,1.321773,1.382706,1.276946,1.104059,N/A,8,8,8,8,N/A,N/A,N/A,N/A,N/A,8,N/A,N/A,8,N/A,8,8,8,8,8,8,8,8,N/A
16-09-2014,00:00:00,259.000000,0.099275,0.148303,0.190564,0.276661,N/A,N/A,N/A,N/A,N/A,0.434453,N/A,N/A,0.517973,N/A,0.626033,0.694767,2.483997,N/A,N/A,N/A,N/A,N/A,N/A,N/A,N/A,N/A,N/A,N/A,N/A,N/A,N/A,N/A,N/A,N/A,1.490107,1.335859,1.491797,1.501591,1.131057,N/A,32,32,32,32,N/A,N/A,N/A,N/A,N/A,32,N/A,N/A,32,N/A,32,32,32,32,32,32,32,32,N/A
17-09-2014,00:00:00,260.000000,0.073028,0.118399,0.153974,0.229038,N/A,N/A,N/A,N/A,N/A,0.367592,N/A,N/A,0.443515,N/A,0.540667,0.603638,2.233440,N/A,N/A,N/A,N/A,N/A,N/A,N/A,N/A,N/A,N/A,N/A,N/A,N/A,N/A,N/A,N/A,N/A,1.580098,1.418407,1.578888,1.590352,1.193638,N/A,35,35,35,35,N/A,N/A,N/A,N/A,N/A,35,N/A,N/A,35,N/A,35,35,35,35,35,35,35,35,N/A
18-09-2014,00:00:00,261.000000,0.025058,0.041245,0.057572,0.091565,N/A,N/A,N/A,N/A,N/A,0.156822,N/A,N/A,0.197281,N/A,0.251229,0.283713,1.866453,N/A,N/A,N/A,N/A,N/A,N/A,N/A,N/A,N/A,N/A,N/A,N/A,N/A,N/A,N/A,N/A,N/A,1.818279,1.706847,1.810443,1.818901,1.383168,N/A,20,20,20,20,N/A,N/A,N/A,N/A,N/A,20,N/A,N/A,20,N/A,20,20,20,20,20,20,20,20,N/A
13-01-2015,00:00:00,13.000000,0.008221,0.011857,0.011829,0.014624,N/A,N/A,N/A,N/A,N/A,0.022638,N/A,N/A,0.028611,N/A,0.035772,0.038180,1.150272,N/A,N/A,N/A,N/A,N/A,N/A,N/A,N/A,N/A,N/A,N/A,N/A,N/A,N/A,N/A,N/A,N/A,1.357333,1.694093,1.608141,1.235261,1.102342,N/A,3,3,3,3,N/A,N/A,N/A,N/A,N/A,3,N/A,N/A,3,N/A,3,3,3,3,3,3,3,3,N/A
18-01-2015,00:00:00,18.000000,0.020921,0.040067,0.043720,0.065978,N/A,N/A,N/A,N/A,N/A,0.094274,N/A,N/A,0.110686,N/A,0.130185,0.142106,0.529922,N/A,N/A,N/A,N/A,N/A,N/A,N/A,N/A,N/A,N/A,N/A,N/A,N/A,N/A,N/A,N/A,N/A,1.363451,1.172006,1.221646,1.400809,0.953820,N/A,5,5,5,5,N/A,N/A,N/A,N/A,N/A,5,N/A,N/A,5,N/A,5,5,5,5,5,5,5,5,N/A
29-01-2015,00:00:00,29.000000,0.032771,0.048625,0.046997,0.054360,N/A,N/A,N/A,N/A,N/A,0.060277,N/A,N/A,0.066716,N/A,0.074045,0.076988,0.685682,N/A,N/A,N/A,N/A,N/A,N/A,N/A,N/A,N/A,N/A,N/A,N/A,N/A,N/A,N/A,N/A,N/A,0.487502,0.744584,0.458091,0.448370,0.548380,N/A,3,3,3,3,N/A,N/A,N/A,N/A,N/A,3,N/A,N/A,3,N/A,3,3,3,3,3,3,3,3,N/A
05-02-2015,00:00:00,36.000000,0.004417,0.019280,0.020662,0.038260,N/A,N/A,N/A,N/A,N/A,0.064717,N/A,N/A,0.084928,N/A,0.105010,0.113290,0.577533,N/A,N/A,N/A,N/A,N/A,N/A,N/A,N/A,N/A,N/A,N/A,N/A,N/A,N/A,N/A,N/A,N/A,2.202294,1.822672,1.943447,2.238193,1.134918,N/A,8,8,8,8,N/A,N/A,N/A,N/A,N/A,8,N/A,N/A,8,N/A,8,8,8,8,8,8,8,8,N/A
08-02-2015,00:00:00,39.000000,0.019529,0.029552,0.025658,0.026462,N/A,N/A,N/A,N/A,N/A,0.024882,N/A,N/A,0.030499,N/A,0.030945,0.023342,0.466794,N/A,N/A,N/A,N/A,N/A,N/A,N/A,N/A,N/A,N/A,N/A,N/A,N/A,N/A,N/A,N/A,N/A,0.155293,0.870921,0.231040,-0.084783,-1.056633,N/A,10,10,10,10,N/A,N/A,N/A,N/A,N/A,10,N/A,N/A,10,N/A,10,10,10,10,10,10,10,10,N/A
21-02-2015,00:00:00,52.000000,0.006100,0.014891,0.017353,0.031210,N/A,N/A,N/A,N/A,N/A,0.054640,N/A,N/A,0.073662,N/A,0.092156,0.097079,1.144896,N/A,N/A,N/A,N/A,N/A,N/A,N/A,N/A,N/A,N/A,N/A,N/A,N/A,N/A,N/A,N/A,N/A,2.202473,1.920180,2.055486,2.197592,1.075505,N/A,13,13,13,13,N/A,N/A,N/A,N/A,N/A,13,N/A,N/A,13,N/A,13,13,13,13,13,13,13,13,N/A
25-02-2015,00:00:00,56.000000,0.054555,0.075397,0.080243,0.101199,N/A,N/A,N/A,N/A,N/A,0.139113,N/A,N/A,0.167464,N/A,0.197549,0.210086,0.869991,N/A,N/A,N/A,N/A,N/A,N/A,N/A,N/A,N/A,N/A,N/A,N/A,N/A,N/A,N/A,N/A,N/A,1.063301,1.256767,1.149731,0.991694,0.847388,N/A,5,5,5,5,N/A,N/A,N/A,N/A,N/A,5,N/A,N/A,5,N/A,5,5,5,5,5,5,5,5,N/A
27-02-2015,00:00:00,58.000000,0.022907,0.048913,0.063025,0.100502,N/A,N/A,N/A,N/A,N/A,0.172412,N/A,N/A,0.216936,N/A,0.265644,0.291168,0.756420,N/A,N/A,N/A,N/A,N/A,N/A,N/A,N/A,N/A,N/A,N/A,N/A,N/A,N/A,N/A,N/A,N/A,1.823638,1.560215,1.814253,1.825263,1.122136,N/A,13,13,13,13,N/A,N/A,N/A,N/A,N/A,13,N/A,N/A,13,N/A,13,13,13,13,13,13,13,13,N/A
28-02-2015,00:00:00,59.000000,0.036529,0.049074,0.049133,0.058100,N/A,N/A,N/A,N/A,N/A,0.074626,N/A,N/A,0.092563,N/A,0.110965,0.117094,0.584158,N/A,N/A,N/A,N/A,N/A,N/A,N/A,N/A,N/A,N/A,N/A,N/A,N/A,N/A,N/A,N/A,N/A,0.893030,1.429399,1.027063,0.751759,0.845425,N/A,12,12,12,12,N/A,N/A,N/A,N/A,N/A,12,N/A,N/A,12,N/A,12,12,12,12,12,12,12,12,N/A
02-03-2015,00:00:00,61.000000,0.051605,0.064145,0.065700,0.076947,N/A,N/A,N/A,N/A,N/A,0.095443,N/A,N/A,0.112176,N/A,0.129979,0.135816,0.772951,N/A,N/A,N/A,N/A,N/A,N/A,N/A,N/A,N/A,N/A,N/A,N/A,N/A,N/A,N/A,N/A,N/A,0.774766,1.146621,0.860441,0.677851,0.700287,N/A,4,4,4,4,N/A,N/A,N/A,N/A,N/A,4,N/A,N/A,4,N/A,4,4,4,4,4,4,4,4,N/A
03-03-2015,00:00:00,62.000000,0.050412,0.059854,0.057709,0.062875,N/A,N/A,N/A,N/A,N/A,0.068343,N/A,N/A,0.078361,N/A,0.086083,0.083529,0.698993,N/A,N/A,N/A,N/A,N/A,N/A,N/A,N/A,N/A,N/A,N/A,N/A,N/A,N/A,N/A,N/A,N/A,0.380092,0.758320,0.431069,0.279644,0.135862,N/A,9,9,9,9,N/A,N/A,N/A,N/A,N/A,9,N/A,N/A,9,N/A,9,9,9,9,9,9,9,9,N/A
04-03-2015,00:00:00,63.000000,0.043672,0.059667,0.062451,0.079460,N/A,N/A,N/A,N/A,N/A,0.103601,N/A,N/A,0.119555,N/A,0.136214,0.138792,0.748513,N/A,N/A,N/A,N/A,N/A,N/A,N/A,N/A,N/A,N/A,N/A,N/A,N/A,N/A,N/A,N/A,N/A,0.942477,0.985882,0.946294,0.914526,0.574939,N/A,5,5,5,5,N/A,N/A,N/A,N/A,N/A,5,N/A,N/A,5,N/A,5,5,5,5,5,5,5,5,N/A
08-03-2015,00:00:00,67.000000,0.015906,0.015158,0.015146,0.021148,N/A,N/A,N/A,N/A,N/A,0.030882,N/A,N/A,0.042470,N/A,0.052453,0.048715,0.944167,N/A,N/A,N/A,N/A,N/A,N/A,N/A,N/A,N/A,N/A,N/A,N/A,N/A,N/A,N/A,N/A,N/A,1.502213,1.920063,1.602749,1.336786,0.565237,N/A,14,14,14,14,N/A,N/A,N/A,N/A,N/A,14,N/A,N/A,14,N/A,14,14,14,14,14,14,14,14,N/A
09-03-2015,00:00:00,68.000000,0.028173,0.046454,0.062236,0.094077,N/A,N/A,N/A,N/A,N/A,0.138946,N/A,N/A,0.162729,N/A,0.183018,0.180681,1.135682,N/A,N/A,N/A,N/A,N/A,N/A,N/A,N/A,N/A,N/A,N/A,N/A,N/A,N/A,N/A,N/A,N/A,1.421233,0.999413,1.305211,1.464590,0.418371,N/A,4,4,4,4,N/A,N/A,N/A,N/A,N/A,4,N/A,N/A,4,N/A,4,4,4,4,4,4,4,4,N/A
23-04-2015,00:00:00,113.000000,0.042221,0.038580,0.052349,0.067710,N/A,N/A,N/A,N/A,N/A,0.107362,N/A,N/A,0.135274,N/A,0.163918,0.182876,1.054476,N/A,N/A,N/A,N/A,N/A,N/A,N/A,N/A,N/A,N/A,N/A,N/A,N/A,N/A,N/A,N/A,N/A,1.439254,1.567418,1.659463,1.334669,1.161193,N/A,21,21,21,21,N/A,N/A,N/A,N/A,N/A,21,N/A,N/A,21,N/A,21,21,21,21,21,21,21,21,N/A
24-04-2015,00:00:00,114.000000,0.068366,0.098853,0.129274,0.185798,N/A,N/A,N/A,N/A,N/A,0.284497,N/A,N/A,0.338587,N/A,0.386019,0.407505,1.331068,N/A,N/A,N/A,N/A,N/A,N/A,N/A,N/A,N/A,N/A,N/A,N/A,N/A,N/A,N/A,N/A,N/A,1.413878,1.093781,1.411890,1.418438,0.694803,N/A,24,24,24,24,N/A,N/A,N/A,N/A,N/A,24,N/A,N/A,24,N/A,24,24,24,24,24,24,24,24,N/A
29-04-2015,00:00:00,119.000000,N/A,0.008548,0.019234,0.027034,N/A,N/A,N/A,N/A,N/A,0.051441,N/A,N/A,0.082440,N/A,0.107249,0.124328,0.741676,N/A,N/A,N/A,N/A,N/A,N/A,N/A,N/A,N/A,N/A,N/A,N/A,N/A,N/A,N/A,N/A,N/A,2.243263,2.709517,2.687384,1.935940,1.581688,N/A,N/A,4,4,4,N/A,N/A,N/A,N/A,N/A,4,N/A,N/A,4,N/A,4,4,4,4,4,4,4,4,N/A
01-05-2015,00:00:00,121.000000,N/A,0.020993,0.030779,0.047281,N/A,N/A,N/A,N/A,N/A,0.089764,N/A,N/A,0.121882,N/A,0.156075,0.186065,0.874887,N/A,N/A,N/A,N/A,N/A,N/A,N/A,N/A,N/A,N/A,N/A,N/A,N/A,N/A,N/A,N/A,N/A,2.077840,1.995085,2.233825,1.999842,1.596381,N/A,N/A,10,10,10,N/A,N/A,N/A,N/A,N/A,10,N/A,N/A,10,N/A,10,10,10,10,10,10,10,10,N/A
02-05-2015,00:00:00,122.000000,N/A,0.017755,0.026819,0.044830,N/A,N/A,N/A,N/A,N/A,0.086497,N/A,N/A,0.119595,N/A,0.152811,0.178125,0.977861,N/A,N/A,N/A,N/A,N/A,N/A,N/A,N/A,N/A,N/A,N/A,N/A,N/A,N/A,N/A,N/A,N/A,2.419613,2.166444,2.479504,2.360008,1.558089,N/A,N/A,19,19,19,N/A,N/A,N/A,N/A,N/A,19,N/A,N/A,19,N/A,19,19,19,19,19,19,19,19,N/A
03-05-2015,00:00:00,123.000000,N/A,0.026681,0.037995,0.059374,N/A,N/A,N/A,N/A,N/A,0.110671,N/A,N/A,0.150812,N/A,0.193424,0.225976,1.208999,N/A,N/A,N/A,N/A,N/A,N/A,N/A,N/A,N/A,N/A,N/A,N/A,N/A,N/A,N/A,N/A,N/A,2.042079,2.018614,2.186096,1.956740,1.533211,N/A,N/A,18,18,18,N/A,N/A,N/A,N/A,N/A,18,N/A,N/A,18,N/A,18,18,18,18,18,18,18,18,N/A
04-05-2015,00:00:00,124.000000,N/A,0.001860,0.016427,0.023585,N/A,N/A,N/A,N/A,N/A,0.053482,N/A,N/A,0.077162,N/A,0.100756,0.120333,1.821053,N/A,N/A,N/A,N/A,N/A,N/A,N/A,N/A,N/A,N/A,N/A,N/A,N/A,N/A,N/A,N/A,N/A,2.481458,2.403665,3.065381,2.281179,1.688357,N/A,N/A,6,6,6,N/A,N/A,N/A,N/A,N/A,6,N/A,N/A,6,N/A,6,6,6,6,6,6,6,6,N/A
06-05-2015,00:00:00,126.000000,N/A,0.035710,0.047310,0.056732,N/A,N/A,N/A,N/A,N/A,0.093095,N/A,N/A,0.118694,N/A,0.147157,0.169894,1.392676,N/A,N/A,N/A,N/A,N/A,N/A,N/A,N/A,N/A,N/A,N/A,N/A,N/A,N/A,N/A,N/A,N/A,1.391759,1.672215,1.751787,1.248747,1.369601,N/A,N/A,5,5,5,N/A,N/A,N/A,N/A,N/A,5,N/A,N/A,5,N/A,5,5,5,5,5,5,5,5,N/A
07-05-2015,00:00:00,127.000000,N/A,0.014767,0.020019,0.023548,N/A,N/A,N/A,N/A,N/A,0.037219,N/A,N/A,0.053144,N/A,0.062790,0.072532,1.179525,N/A,N/A,N/A,N/A,N/A,N/A,N/A,N/A,N/A,N/A,N/A,N/A,N/A,N/A,N/A,N/A,N/A,1.404133,1.858760,1.848699,1.120768,1.124435,N/A,N/A,13,13,13,N/A,N/A,N/A,N/A,N/A,13,N/A,N/A,13,N/A,13,13,13,13,13,13,13,13,N/A
09-05-2015,00:00:00,129.000000,N/A,0.082393,0.098559,0.129717,N/A,N/A,N/A,N/A,N/A,0.200948,N/A,N/A,0.249345,N/A,0.304430,0.349599,1.924508,N/A,N/A,N/A,N/A,N/A,N/A,N/A,N/A,N/A,N/A,N/A,N/A,N/A,N/A,N/A,N/A,N/A,1.383254,1.508774,1.537278,1.307840,1.282958,N/A,N/A,3,3,3,N/A,N/A,N/A,N/A,N/A,3,N/A,N/A,3,N/A,3,3,3,3,3,3,3,3,N/A
10-05-2015,00:00:00,130.000000,N/A,0.043173,0.049185,0.053605,N/A,N/A,N/A,N/A,N/A,0.069981,N/A,N/A,0.085876,N/A,0.099233,0.108880,0.979735,N/A,N/A,N/A,N/A,N/A,N/A,N/A,N/A,N/A,N/A,N/A,N/A,N/A,N/A,N/A,N/A,N/A,0.819286,1.271304,1.084304,0.656240,0.904760,N/A,N/A,8,8,8,N/A,N/A,N/A,N/A,N/A,8,N/A,N/A,8,N/A,8,8,8,8,8,8,8,8,N/A
13-05-2015,00:00:00,133.000000,N/A,0.044983,0.051561,0.054355,N/A,N/A,N/A,N/A,N/A,0.073025,N/A,N/A,0.091896,N/A,0.105917,0.118094,1.168249,N/A,N/A,N/A,N/A,N/A,N/A,N/A,N/A,N/A,N/A,N/A,N/A,N/A,N/A,N/A,N/A,N/A,0.838917,1.349489,1.194628,0.633213,0.948029,N/A,N/A,16,16,16,N/A,N/A,N/A,N/A,N/A,16,N/A,N/A,16,N/A,16,16,16,16,16,16,16,16,N/A
15-05-2015,00:00:00,135.000000,N/A,0.038805,0.049817,0.059756,N/A,N/A,N/A,N/A,N/A,0.088254,N/A,N/A,0.113703,N/A,0.136927,0.155394,0.964119,N/A,N/A,N/A,N/A,N/A,N/A,N/A,N/A,N/A,N/A,N/A,N/A,N/A,N/A,N/A,N/A,N/A,1.217078,1.614113,1.500608,1.046941,1.198261,N/A,N/A,36,36,36,N/A,N/A,N/A,N/A,N/A,36,N/A,N/A,36,N/A,36,36,36,36,36,36,36,36,N/A
16-05-2015,00:00:00,136.000000,N/A,0.077791,0.087793,0.107059,N/A,N/A,N/A,N/A,N/A,0.152973,N/A,N/A,0.183911,N/A,0.212922,0.229770,0.950902,N/A,N/A,N/A,N/A,N/A,N/A,N/A,N/A,N/A,N/A,N/A,N/A,N/A,N/A,N/A,N/A,N/A,1.095391,1.191989,1.262482,1.013758,0.846019,N/A,N/A,4,4,4,N/A,N/A,N/A,N/A,N/A,4,N/A,N/A,4,N/A,4,4,4,4,4,4,4,4,N/A
17-05-2015,00:00:00,137.000000,N/A,0.052849,0.062647,0.064878,N/A,N/A,N/A,N/A,N/A,0.077221,N/A,N/A,0.100006,N/A,0.116440,0.132524,1.026419,N/A,N/A,N/A,N/A,N/A,N/A,N/A,N/A,N/A,N/A,N/A,N/A,N/A,N/A,N/A,N/A,N/A,0.619584,1.530650,0.936944,0.346024,1.044916,N/A,N/A,4,4,4,N/A,N/A,N/A,N/A,N/A,4,N/A,N/A,4,N/A,4,4,4,4,4,4,4,4,N/A
21-05-2015,00:00:00,141.000000,N/A,0.066368,0.084066,0.119899,N/A,N/A,N/A,N/A,N/A,0.201484,N/A,N/A,0.256730,N/A,0.317268,0.366229,1.304448,N/A,N/A,N/A,N/A,N/A,N/A,N/A,N/A,N/A,N/A,N/A,N/A,N/A,N/A,N/A,N/A,N/A,1.684382,1.646437,1.804449,1.628185,1.348160,N/A,N/A,13,13,13,N/A,N/A,N/A,N/A,N/A,13,N/A,N/A,13,N/A,13,13,13,13,13,13,13,13,N/A
22-05-2015,00:00:00,142.000000,N/A,0.057665,0.077888,0.104731,N/A,N/A,N/A,N/A,N/A,0.169277,N/A,N/A,0.212720,N/A,0.260609,0.297802,1.482016,N/A,N/A,N/A,N/A,N/A,N/A,N/A,N/A,N/A,N/A,N/A,N/A,N/A,N/A,N/A,N/A,N/A,1.584984,1.637369,1.770423,1.504287,1.323351,N/A,N/A,14,14,14,N/A,N/A,N/A,N/A,N/A,14,N/A,N/A,14,N/A,14,14,14,14,14,14,14,14,N/A
24-05-2015,00:00:00,144.000000,N/A,0.038434,0.050028,0.051675,N/A,N/A,N/A,N/A,N/A,0.069787,N/A,N/A,0.088762,N/A,0.106340,0.123871,0.985879,N/A,N/A,N/A,N/A,N/A,N/A,N/A,N/A,N/A,N/A,N/A,N/A,N/A,N/A,N/A,N/A,N/A,0.912612,1.615920,1.369661,0.670403,1.326162,N/A,N/A,44,44,44,N/A,N/A,N/A,N/A,N/A,44,N/A,N/A,44,N/A,44,44,44,44,44,44,44,44,N/A
09-06-2015,00:00:00,160.000000,N/A,0.016429,0.034794,0.041151,N/A,N/A,N/A,N/A,N/A,0.081548,N/A,N/A,0.113210,N/A,0.144134,0.174151,1.524248,N/A,N/A,N/A,N/A,N/A,N/A,N/A,N/A,N/A,N/A,N/A,N/A,N/A,N/A,N/A,N/A,N/A,1.806334,2.058701,2.399778,1.580195,1.599290,N/A,N/A,10,10,10,N/A,N/A,N/A,N/A,N/A,10,N/A,N/A,10,N/A,10,10,10,10,10,10,10,10,N/A
10-06-2015,00:00:00,161.000000,N/A,0.035302,0.053530,0.076698,N/A,N/A,N/A,N/A,N/A,0.137467,N/A,N/A,0.177233,N/A,0.222089,0.256383,1.622228,N/A,N/A,N/A,N/A,N/A,N/A,N/A,N/A,N/A,N/A,N/A,N/A,N/A,N/A,N/A,N/A,N/A,1.788674,1.725486,1.974197,1.722899,1.382960,N/A,N/A,13,13,13,N/A,N/A,N/A,N/A,N/A,13,N/A,N/A,13,N/A,13,13,13,13,13,13,13,13,N/A
11-06-2015,00:00:00,162.000000,N/A,0.008019,0.020156,0.028843,N/A,N/A,N/A,N/A,N/A,0.069515,N/A,N/A,0.098055,N/A,0.129658,0.154470,1.568881,N/A,N/A,N/A,N/A,N/A,N/A,N/A,N/A,N/A,N/A,N/A,N/A,N/A,N/A,N/A,N/A,N/A,2.547904,2.295985,3.106375,2.411500,1.740923,N/A,N/A,24,30,30,N/A,N/A,N/A,N/A,N/A,30,N/A,N/A,30,N/A,30,30,30,30,30,30,30,30,N/A
12-06-2015,00:00:00,163.000000,N/A,0.031735,0.056471,0.096855,N/A,N/A,N/A,N/A,N/A,0.191117,N/A,N/A,0.244958,N/A,0.311650,0.366565,2.233339,N/A,N/A,N/A,N/A,N/A,N/A,N/A,N/A,N/A,N/A,N/A,N/A,N/A,N/A,N/A,N/A,N/A,2.194425,1.781970,2.231238,2.215827,1.524763,N/A,N/A,15,15,15,N/A,N/A,N/A,N/A,N/A,15,N/A,N/A,15,N/A,15,15,15,15,15,15,15,15,N/A
13-06-2015,00:00:00,164.000000,N/A,0.064018,0.086579,0.147958,N/A,N/A,N/A,N/A,N/A,0.266762,N/A,N/A,0.332353,N/A,0.408285,0.462298,2.093816,N/A,N/A,N/A,N/A,N/A,N/A,N/A,N/A,N/A,N/A,N/A,N/A,N/A,N/A,N/A,N/A,N/A,2.013780,1.542720,1.931905,2.065211,1.254659,N/A,N/A,11,11,11,N/A,N/A,N/A,N/A,N/A,11,N/A,N/A,11,N/A,11,11,11,11,11,11,11,11,N/A
14-06-2015,00:00:00,165.000000,N/A,0.024662,0.029700,0.052796,N/A,N/A,N/A,N/A,N/A,0.093775,N/A,N/A,0.118851,N/A,0.145162,0.166530,1.880182,N/A,N/A,N/A,N/A,N/A,N/A,N/A,N/A,N/A,N/A,N/A,N/A,N/A,N/A,N/A,N/A,N/A,2.043522,1.596651,1.920158,2.084577,1.291593,N/A,N/A,5,5,5,N/A,N/A,N/A,N/A,N/A,5,N/A,N/A,5,N/A,5,5,5,5,5,5,5,5,N/A
15-06-2015,00:00:00,166.000000,N/A,0.026967,0.026732,0.036905,N/A,N/A,N/A,N/A,N/A,0.059118,N/A,N/A,0.076427,N/A,0.093564,0.111560,1.329509,N/A,N/A,N/A,N/A,N/A,N/A,N/A,N/A,N/A,N/A,N/A,N/A,N/A,N/A,N/A,N/A,N/A,1.941941,1.775110,2.002892,1.896358,1.493129,N/A,N/A,11,11,11,N/A,N/A,N/A,N/A,N/A,11,N/A,N/A,11,N/A,11,11,11,11,11,11,11,11,N/A
17-06-2015,00:00:00,168.000000,N/A,0.033149,0.032689,0.049398,N/A,N/A,N/A,N/A,N/A,0.076235,N/A,N/A,0.097264,N/A,0.114206,0.131421,1.288553,N/A,N/A,N/A,N/A,N/A,N/A,N/A,N/A,N/A,N/A,N/A,N/A,N/A,N/A,N/A,N/A,N/A,2.120021,1.695220,2.035280,2.097293,1.278490,N/A,N/A,13,13,13,N/A,N/A,N/A,N/A,N/A,13,N/A,N/A,13,N/A,13,13,13,13,13,13,13,13,N/A
21-06-2015,00:00:00,172.000000,N/A,0.044669,0.061870,0.112024,N/A,N/A,N/A,N/A,N/A,0.203191,N/A,N/A,0.252056,N/A,0.307812,0.346849,1.698468,N/A,N/A,N/A,N/A,N/A,N/A,N/A,N/A,N/A,N/A,N/A,N/A,N/A,N/A,N/A,N/A,N/A,2.076501,1.501629,1.928246,2.154097,1.211975,N/A,N/A,3,3,3,N/A,N/A,N/A,N/A,N/A,3,N/A,N/A,3,N/A,3,3,3,3,3,3,3,3,N/A
25-06-2015,00:00:00,176.000000,N/A,0.052087,0.073783,0.130829,N/A,N/A,N/A,N/A,N/A,0.234862,N/A,N/A,0.290887,N/A,0.357394,0.413643,2.122747,N/A,N/A,N/A,N/A,N/A,N/A,N/A,N/A,N/A,N/A,N/A,N/A,N/A,N/A,N/A,N/A,N/A,2.020185,1.506485,1.883747,2.091169,1.329745,N/A,N/A,6,6,6,N/A,N/A,N/A,N/A,N/A,6,N/A,N/A,6,N/A,6,6,6,6,6,6,6,6,N/A
28-06-2015,00:00:00,179.000000,N/A,0.008144,0.012825,0.033092,N/A,N/A,N/A,N/A,N/A,0.070089,N/A,N/A,0.092780,N/A,0.118997,0.146910,1.707668,N/A,N/A,N/A,N/A,N/A,N/A,N/A,N/A,N/A,N/A,N/A,N/A,N/A,N/A,N/A,N/A,N/A,2.700653,1.969148,2.639220,2.800224,1.761893,N/A,N/A,6,6,6,N/A,N/A,N/A,N/A,N/A,6,N/A,N/A,6,N/A,6,6,6,6,6,6,6,6,N/A
29-06-2015,00:00:00,180.000000,N/A,0.013143,0.024963,0.061612,N/A,N/A,N/A,N/A,N/A,0.130070,N/A,N/A,0.169010,N/A,0.220742,0.273678,2.197487,N/A,N/A,N/A,N/A,N/A,N/A,N/A,N/A,N/A,N/A,N/A,N/A,N/A,N/A,N/A,N/A,N/A,3.160377,1.947023,2.496681,3.424593,1.838154,N/A,N/A,13,13,13,N/A,N/A,N/A,N/A,N/A,13,N/A,N/A,13,N/A,13,13,13,13,13,13,13,13,N/A
30-06-2015,00:00:00,181.000000,N/A,0.006673,0.011591,0.017005,N/A,N/A,N/A,N/A,N/A,0.036644,N/A,N/A,0.047835,N/A,0.061163,0.081920,2.315063,N/A,N/A,N/A,N/A,N/A,N/A,N/A,N/A,N/A,N/A,N/A,N/A,N/A,N/A,N/A,N/A,N/A,2.248050,1.865886,2.532460,2.212658,2.030735,N/A,N/A,7,7,7,N/A,N/A,N/A,N/A,N/A,7,N/A,N/A,7,N/A,7,7,7,7,7,7,7,7,N/A
01-07-2015,00:00:00,182.000000,N/A,0.007907,0.011216,0.019398,N/A,N/A,N/A,N/A,N/A,0.040380,N/A,N/A,0.054802,N/A,0.070522,0.089715,1.969107,N/A,N/A,N/A,N/A,N/A,N/A,N/A,N/A,N/A,N/A,N/A,N/A,N/A,N/A,N/A,N/A,N/A,2.453601,2.067665,2.634136,2.426908,1.895446,N/A,N/A,32,35,35,N/A,N/A,N/A,N/A,N/A,35,N/A,N/A,35,N/A,35,35,35,35,35,35,35,35,N/A
02-07-2015,00:00:00,183.000000,N/A,0.008860,0.015246,0.028933,N/A,N/A,N/A,N/A,N/A,0.065482,N/A,N/A,0.088353,N/A,0.118792,0.151110,1.981714,N/A,N/A,N/A,N/A,N/A,N/A,N/A,N/A,N/A,N/A,N/A,N/A,N/A,N/A,N/A,N/A,N/A,2.706601,2.172293,2.725420,2.757680,2.034109,N/A,N/A,27,29,29,N/A,N/A,N/A,N/A,N/A,29,N/A,N/A,29,N/A,29,29,29,29,29,29,29,29,N/A
03-07-2015,00:00:00,184.000000,N/A,0.013915,0.027708,0.055403,N/A,N/A,N/A,N/A,N/A,0.116137,N/A,N/A,0.153867,N/A,0.208003,0.261708,2.276882,N/A,N/A,N/A,N/A,N/A,N/A,N/A,N/A,N/A,N/A,N/A,N/A,N/A,N/A,N/A,N/A,N/A,2.805687,2.189541,2.562460,2.911924,2.049352,N/A,N/A,27,27,27,N/A,N/A,N/A,N/A,N/A,27,N/A,N/A,27,N/A,27,27,27,27,27,27,27,27,N/A
04-07-2015,00:00:00,185.000000,N/A,0.064941,0.104377,0.189469,N/A,N/A,N/A,N/A,N/A,0.360382,N/A,N/A,0.451734,N/A,0.578562,0.688500,3.073039,N/A,N/A,N/A,N/A,N/A,N/A,N/A,N/A,N/A,N/A,N/A,N/A,N/A,N/A,N/A,N/A,N/A,2.180981,1.716414,2.069819,2.254591,1.593639,N/A,N/A,35,35,35,N/A,N/A,N/A,N/A,N/A,35,N/A,N/A,35,N/A,35,35,35,35,35,35,35,35,N/A
05-07-2015,00:00:00,186.000000,N/A,0.066422,0.104970,0.181944,N/A,N/A,N/A,N/A,N/A,0.329876,N/A,N/A,0.400906,N/A,0.507485,0.601421,3.596520,N/A,N/A,N/A,N/A,N/A,N/A,N/A,N/A,N/A,N/A,N/A,N/A,N/A,N/A,N/A,N/A,N/A,2.042815,1.575316,1.914477,2.133412,1.545847,N/A,N/A,24,24,24,N/A,N/A,N/A,N/A,N/A,24,N/A,N/A,24,N/A,24,24,24,24,24,24,24,24,N/A
06-07-2015,00:00:00,187.000000,N/A,0.044156,0.068783,0.116887,N/A,N/A,N/A,N/A,N/A,0.212189,N/A,N/A,0.259971,N/A,0.315513,0.367397,1.807547,N/A,N/A,N/A,N/A,N/A,N/A,N/A,N/A,N/A,N/A,N/A,N/A,N/A,N/A,N/A,N/A,N/A,2.066328,1.467579,1.963298,2.143735,1.352531,N/A,N/A,11,11,11,N/A,N/A,N/A,N/A,N/A,11,N/A,N/A,11,N/A,11,11,11,11,11,11,11,11,N/A
07-07-2015,00:00:00,188.000000,N/A,0.017990,0.030902,0.054447,N/A,N/A,N/A,N/A,N/A,0.107783,N/A,N/A,0.135647,N/A,0.172464,0.210591,2.363940,N/A,N/A,N/A,N/A,N/A,N/A,N/A,N/A,N/A,N/A,N/A,N/A,N/A,N/A,N/A,N/A,N/A,2.360070,1.713934,2.226080,2.458021,1.672676,N/A,N/A,28,28,28,N/A,N/A,N/A,N/A,N/A,28,N/A,N/A,28,N/A,28,28,28,28,28,28,28,28,N/A
09-07-2015,00:00:00,190.000000,N/A,0.018300,0.021492,0.035239,N/A,N/A,N/A,N/A,N/A,0.060164,N/A,N/A,0.074053,N/A,0.087342,0.108970,1.497841,N/A,N/A,N/A,N/A,N/A,N/A,N/A,N/A,N/A,N/A,N/A,N/A,N/A,N/A,N/A,N/A,N/A,2.238132,1.425477,2.127196,2.372664,1.511485,N/A,N/A,9,9,9,N/A,N/A,N/A,N/A,N/A,9,N/A,N/A,9,N/A,9,9,9,9,9,9,9,9,N/A
10-07-2015,00:00:00,191.000000,N/A,0.022081,0.027704,0.039457,N/A,N/A,N/A,N/A,N/A,0.070669,N/A,N/A,0.089726,N/A,0.110068,0.133474,1.412804,N/A,N/A,N/A,N/A,N/A,N/A,N/A,N/A,N/A,N/A,N/A,N/A,N/A,N/A,N/A,N/A,N/A,1.784469,1.600279,1.952226,1.737914,1.494033,N/A,N/A,11,11,11,N/A,N/A,N/A,N/A,N/A,11,N/A,N/A,11,N/A,11,11,11,11,11,11,11,11,N/A
11-07-2015,00:00:00,192.000000,N/A,0.036321,0.046290,0.071914,N/A,N/A,N/A,N/A,N/A,0.124265,N/A,N/A,0.152112,N/A,0.182277,0.210765,1.947143,N/A,N/A,N/A,N/A,N/A,N/A,N/A,N/A,N/A,N/A,N/A,N/A,N/A,N/A,N/A,N/A,N/A,1.845577,1.409697,1.829460,1.878607,1.268364,N/A,N/A,14,14,14,N/A,N/A,N/A,N/A,N/A,14,N/A,N/A,14,N/A,14,14,14,14,14,14,14,14,N/A
15-07-2015,00:00:00,196.000000,N/A,0.032514,0.045698,0.077525,N/A,N/A,N/A,N/A,N/A,0.137127,N/A,N/A,0.165078,N/A,0.192763,0.215832,2.051910,N/A,N/A,N/A,N/A,N/A,N/A,N/A,N/A,N/A,N/A,N/A,N/A,N/A,N/A,N/A,N/A,N/A,1.949679,1.244582,1.836012,2.033920,1.028460,N/A,N/A,14,14,14,N/A,N/A,N/A,N/A,N/A,14,N/A,N/A,14,N/A,14,14,14,14,14,14,14,14,N/A
16-07-2015,00:00:00,197.000000,N/A,0.050364,0.076253,0.130662,N/A,N/A,N/A,N/A,N/A,0.235132,N/A,N/A,0.287186,N/A,0.347415,0.400450,2.144687,N/A,N/A,N/A,N/A,N/A,N/A,N/A,N/A,N/A,N/A,N/A,N/A,N/A,N/A,N/A,N/A,N/A,1.970706,1.411451,1.877492,2.040904,1.254936,N/A,N/A,7,7,7,N/A,N/A,N/A,N/A,N/A,7,N/A,N/A,7,N/A,7,7,7,7,7,7,7,7,N/A
17-07-2015,00:00:00,198.000000,N/A,0.083486,0.108584,0.159505,N/A,N/A,N/A,N/A,N/A,0.255927,N/A,N/A,0.304036,N/A,0.365335,0.423134,3.006597,N/A,N/A,N/A,N/A,N/A,N/A,N/A,N/A,N/A,N/A,N/A,N/A,N/A,N/A,N/A,N/A,N/A,1.538620,1.299448,1.541849,1.561598,1.263030,N/A,N/A,30,30,30,N/A,N/A,N/A,N/A,N/A,30,N/A,N/A,30,N/A,30,30,30,30,30,30,30,30,N/A
18-07-2015,00:00:00,199.000000,N/A,0.074128,0.099975,0.153890,N/A,N/A,N/A,N/A,N/A,0.253518,N/A,N/A,0.303686,N/A,0.362901,0.421677,2.963857,N/A,N/A,N/A,N/A,N/A,N/A,N/A,N/A,N/A,N/A,N/A,N/A,N/A,N/A,N/A,N/A,N/A,1.670343,1.305068,1.632421,1.709207,1.249447,N/A,N/A,17,17,17,N/A,N/A,N/A,N/A,N/A,17,N/A,N/A,17,N/A,17,17,17,17,17,17,17,17,N/A
20-07-2015,00:00:00,201.000000,N/A,0.016063,0.024787,0.040576,N/A,N/A,N/A,N/A,N/A,0.077623,N/A,N/A,0.096606,N/A,0.118249,0.147812,1.740641,N/A,N/A,N/A,N/A,N/A,N/A,N/A,N/A,N/A,N/A,N/A,N/A,N/A,N/A,N/A,N/A,N/A,2.247759,1.546770,2.192072,2.322990,1.639359,N/A,N/A,23,23,23,N/A,N/A,N/A,N/A,N/A,23,N/A,N/A,23,N/A,23,23,23,23,23,23,23,23,N/A
21-07-2015,00:00:00,202.000000,N/A,0.030027,0.045080,0.070526,N/A,N/A,N/A,N/A,N/A,0.125830,N/A,N/A,0.154657,N/A,0.186912,0.231645,2.699960,N/A,N/A,N/A,N/A,N/A,N/A,N/A,N/A,N/A,N/A,N/A,N/A,N/A,N/A,N/A,N/A,N/A,1.810010,1.418505,1.844694,1.829260,1.490202,N/A,N/A,11,11,11,N/A,N/A,N/A,N/A,N/A,11,N/A,N/A,11,N/A,11,11,11,11,11,11,11,11,N/A
22-07-2015,00:00:00,203.000000,N/A,0.061433,0.086798,0.137739,N/A,N/A,N/A,N/A,N/A,0.240578,N/A,N/A,0.292729,N/A,0.360461,0.421249,3.688684,N/A,N/A,N/A,N/A,N/A,N/A,N/A,N/A,N/A,N/A,N/A,N/A,N/A,N/A,N/A,N/A,N/A,1.816289,1.468809,1.798813,1.854913,1.384259,N/A,N/A,5,5,5,N/A,N/A,N/A,N/A,N/A,5,N/A,N/A,5,N/A,5,5,5,5,5,5,5,5,N/A
23-07-2015,00:00:00,204.000000,N/A,0.006993,0.013905,0.025941,N/A,N/A,N/A,N/A,N/A,0.051531,N/A,N/A,0.065691,N/A,0.080979,0.105973,2.370116,N/A,N/A,N/A,N/A,N/A,N/A,N/A,N/A,N/A,N/A,N/A,N/A,N/A,N/A,N/A,N/A,N/A,2.289606,1.625078,2.224905,2.349594,1.768513,N/A,N/A,8,8,8,N/A,N/A,N/A,N/A,N/A,8,N/A,N/A,8,N/A,8,8,8,8,8,8,8,8,N/A
24-07-2015,00:00:00,205.000000,N/A,0.083938,0.121234,0.192969,N/A,N/A,N/A,N/A,N/A,0.318594,N/A,N/A,0.376908,N/A,0.439858,0.500966,2.737160,N/A,N/A,N/A,N/A,N/A,N/A,N/A,N/A,N/A,N/A,N/A,N/A,N/A,N/A,N/A,N/A,N/A,1.699317,1.173879,1.611105,1.764372,1.083804,N/A,N/A,7,7,7,N/A,N/A,N/A,N/A,N/A,7,N/A,N/A,7,N/A,7,7,7,7,7,7,7,7,N/A
25-07-2015,00:00:00,206.000000,N/A,0.012066,0.019864,0.031608,N/A,N/A,N/A,N/A,N/A,0.058291,N/A,N/A,0.071471,N/A,0.086465,0.114970,2.126185,N/A,N/A,N/A,N/A,N/A,N/A,N/A,N/A,N/A,N/A,N/A,N/A,N/A,N/A,N/A,N/A,N/A,1.890978,1.341276,1.895881,1.934620,1.629537,N/A,N/A,11,11,11,N/A,N/A,N/A,N/A,N/A,11,N/A,N/A,11,N/A,11,11,11,11,11,11,11,11,N/A
26-07-2015,00:00:00,207.000000,N/A,0.016404,0.023777,0.037088,N/A,N/A,N/A,N/A,N/A,0.067090,N/A,N/A,0.083871,N/A,0.100373,0.125553,1.513088,N/A,N/A,N/A,N/A,N/A,N/A,N/A,N/A,N/A,N/A,N/A,N/A,N/A,N/A,N/A,N/A,N/A,1.915781,1.454578,1.949641,1.928737,1.506401,N/A,N/A,19,19,19,N/A,N/A,N/A,N/A,N/A,19,N/A,N/A,19,N/A,19,19,19,19,19,19,19,19,N/A
28-07-2015,00:00:00,209.000000,N/A,0.064353,0.077176,0.113437,N/A,N/A,N/A,N/A,N/A,0.181476,N/A,N/A,0.218698,N/A,0.255724,0.287891,1.924608,N/A,N/A,N/A,N/A,N/A,N/A,N/A,N/A,N/A,N/A,N/A,N/A,N/A,N/A,N/A,N/A,N/A,1.547998,1.240775,1.555833,1.554328,1.044186,N/A,N/A,4,4,4,N/A,N/A,N/A,N/A,N/A,4,N/A,N/A,4,N/A,4,4,4,4,4,4,4,4,N/A
29-07-2015,00:00:00,210.000000,N/A,0.042780,0.050075,0.070511,N/A,N/A,N/A,N/A,N/A,0.111290,N/A,N/A,0.135856,N/A,0.159022,0.186560,1.700053,N/A,N/A,N/A,N/A,N/A,N/A,N/A,N/A,N/A,N/A,N/A,N/A,N/A,N/A,N/A,N/A,N/A,1.488821,1.284863,1.542498,1.465710,1.182157,N/A,N/A,17,17,17,N/A,N/A,N/A,N/A,N/A,17,N/A,N/A,17,N/A,17,17,17,17,17,17,17,17,N/A
30-07-2015,00:00:00,211.000000,N/A,0.040927,0.051683,0.073777,N/A,N/A,N/A,N/A,N/A,0.115991,N/A,N/A,0.140248,N/A,0.163012,0.192655,1.690282,N/A,N/A,N/A,N/A,N/A,N/A,N/A,N/A,N/A,N/A,N/A,N/A,N/A,N/A,N/A,N/A,N/A,1.485299,1.230639,1.518304,1.473307,1.193082,N/A,N/A,4,4,4,N/A,N/A,N/A,N/A,N/A,4,N/A,N/A,4,N/A,4,4,4,4,4,4,4,4,N/A
01-08-2015,00:00:00,213.000000,N/A,0.027006,0.040282,0.062830,N/A,N/A,N/A,N/A,N/A,0.116509,N/A,N/A,0.149516,N/A,0.190534,0.255358,1.772666,N/A,N/A,N/A,N/A,N/A,N/A,N/A,N/A,N/A,N/A,N/A,N/A,N/A,N/A,N/A,N/A,N/A,1.996149,1.783642,2.070359,1.983691,2.002231,N/A,N/A,17,17,17,N/A,N/A,N/A,N/A,N/A,17,N/A,N/A,17,N/A,17,17,17,17,17,17,17,17,N/A
02-08-2015,00:00:00,214.000000,N/A,0.037583,0.050709,0.080223,N/A,N/A,N/A,N/A,N/A,0.144927,N/A,N/A,0.184015,N/A,0.234417,0.292342,1.745591,N/A,N/A,N/A,N/A,N/A,N/A,N/A,N/A,N/A,N/A,N/A,N/A,N/A,N/A,N/A,N/A,N/A,1.960394,1.753198,1.985990,1.963448,1.764018,N/A,N/A,17,17,17,N/A,N/A,N/A,N/A,N/A,17,N/A,N/A,17,N/A,17,17,17,17,17,17,17,17,N/A
03-08-2015,00:00:00,215.000000,N/A,0.043352,0.062865,0.105530,N/A,N/A,N/A,N/A,N/A,0.201703,N/A,N/A,0.258671,N/A,0.337221,0.419301,2.297599,N/A,N/A,N/A,N/A,N/A,N/A,N/A,N/A,N/A,N/A,N/A,N/A,N/A,N/A,N/A,N/A,N/A,2.121310,1.856788,2.126855,2.140263,1.810715,N/A,N/A,35,35,35,N/A,N/A,N/A,N/A,N/A,35,N/A,N/A,35,N/A,35,35,35,35,35,35,35,35,N/A
04-08-2015,00:00:00,216.000000,N/A,0.064396,0.093462,0.156037,N/A,N/A,N/A,N/A,N/A,0.279727,N/A,N/A,0.345649,N/A,0.423849,0.495967,2.696201,N/A,N/A,N/A,N/A,N/A,N/A,N/A,N/A,N/A,N/A,N/A,N/A,N/A,N/A,N/A,N/A,N/A,1.953004,1.507131,1.898494,2.000136,1.364939,N/A,N/A,16,16,16,N/A,N/A,N/A,N/A,N/A,16,N/A,N/A,16,N/A,16,16,16,16,16,16,16,16,N/A
05-08-2015,00:00:00,217.000000,N/A,0.036725,0.046817,0.060253,N/A,N/A,N/A,N/A,N/A,0.094561,N/A,N/A,0.115590,N/A,0.140129,0.189605,2.061791,N/A,N/A,N/A,N/A,N/A,N/A,N/A,N/A,N/A,N/A,N/A,N/A,N/A,N/A,N/A,N/A,N/A,1.718234,1.481987,1.739016,1.718538,1.877137,N/A,N/A,10,10,10,N/A,N/A,N/A,N/A,N/A,10,N/A,N/A,10,N/A,10,10,10,10,10,10,10,10,N/A
06-08-2015,00:00:00,218.000000,N/A,0.033715,0.050645,0.080716,N/A,N/A,N/A,N/A,N/A,0.148110,N/A,N/A,0.183745,N/A,0.233909,0.296489,2.563422,N/A,N/A,N/A,N/A,N/A,N/A,N/A,N/A,N/A,N/A,N/A,N/A,N/A,N/A,N/A,N/A,N/A,2.006555,1.667344,1.995820,2.047407,1.803741,N/A,N/A,22,22,22,N/A,N/A,N/A,N/A,N/A,22,N/A,N/A,22,N/A,22,22,22,22,22,22,22,22,N/A
07-08-2015,00:00:00,219.000000,N/A,0.073827,0.102602,0.161904,N/A,N/A,N/A,N/A,N/A,0.284145,N/A,N/A,0.349037,N/A,0.432965,0.494791,2.883639,N/A,N/A,N/A,N/A,N/A,N/A,N/A,N/A,N/A,N/A,N/A,N/A,N/A,N/A,N/A,N/A,N/A,1.828613,1.541557,1.845662,1.848056,1.487391,N/A,N/A,18,18,18,N/A,N/A,N/A,N/A,N/A,18,N/A,N/A,18,N/A,18,17,18,18,18,18,18,18,N/A
08-08-2015,00:00:00,220.000000,N/A,0.104544,0.150309,0.251057,N/A,N/A,N/A,N/A,N/A,0.443140,N/A,N/A,0.541477,N/A,0.669017,0.790054,3.416806,N/A,N/A,N/A,N/A,N/A,N/A,N/A,N/A,N/A,N/A,N/A,N/A,N/A,N/A,N/A,N/A,N/A,1.907225,1.492883,1.830973,1.964880,1.427246,N/A,N/A,21,21,21,N/A,N/A,N/A,N/A,N/A,21,N/A,N/A,21,N/A,21,21,21,21,21,21,21,21,N/A
09-08-2015,00:00:00,221.000000,N/A,0.035891,0.052831,0.081697,N/A,N/A,N/A,N/A,N/A,0.146101,N/A,N/A,0.178941,N/A,0.218459,0.272252,2.376823,N/A,N/A,N/A,N/A,N/A,N/A,N/A,N/A,N/A,N/A,N/A,N/A,N/A,N/A,N/A,N/A,N/A,1.878058,1.486228,1.912488,1.905365,1.637233,N/A,N/A,27,27,27,N/A,N/A,N/A,N/A,N/A,27,N/A,N/A,27,N/A,27,27,27,27,27,27,27,27,N/A
10-08-2015,00:00:00,222.000000,N/A,0.121491,0.162712,0.246962,N/A,N/A,N/A,N/A,N/A,0.404085,N/A,N/A,0.480694,N/A,0.567059,0.646232,3.771934,N/A,N/A,N/A,N/A,N/A,N/A,N/A,N/A,N/A,N/A,N/A,N/A,N/A,N/A,N/A,N/A,N/A,1.609224,1.224747,1.582917,1.645953,1.105908,N/A,N/A,13,13,13,N/A,N/A,N/A,N/A,N/A,13,N/A,N/A,13,N/A,13,13,13,13,13,13,13,13,N/A
02-09-2015,00:00:00,245.000000,N/A,0.005314,0.011059,0.024532,N/A,N/A,N/A,N/A,N/A,0.054916,N/A,N/A,0.070002,N/A,0.088191,0.124146,1.569063,N/A,N/A,N/A,N/A,N/A,N/A,N/A,N/A,N/A,N/A,N/A,N/A,N/A,N/A,N/A,N/A,N/A,2.737033,1.720074,2.639533,2.934211,2.155411,N/A,N/A,13,14,14,N/A,N/A,N/A,N/A,N/A,14,N/A,N/A,14,N/A,14,14,14,14,14,14,14,14,N/A
04-09-2015,00:00:00,247.000000,N/A,0.025025,0.041534,0.080018,N/A,N/A,N/A,N/A,N/A,0.159853,N/A,N/A,0.203630,N/A,0.257669,0.315061,1.752322,N/A,N/A,N/A,N/A,N/A,N/A,N/A,N/A,N/A,N/A,N/A,N/A,N/A,N/A,N/A,N/A,N/A,2.379689,1.740834,2.245615,2.465074,1.655841,N/A,N/A,9,9,9,N/A,N/A,N/A,N/A,N/A,9,N/A,N/A,9,N/A,9,9,9,9,9,9,9,9,N/A
07-09-2015,00:00:00,250.000000,N/A,0.005283,0.010492,0.024043,N/A,N/A,N/A,N/A,N/A,0.054330,N/A,N/A,0.070884,N/A,0.090581,0.121983,1.233149,N/A,N/A,N/A,N/A,N/A,N/A,N/A,N/A,N/A,N/A,N/A,N/A,N/A,N/A,N/A,N/A,N/A,2.976093,1.854337,2.628935,3.157118,2.059079,N/A,N/A,12,12,12,N/A,N/A,N/A,N/A,N/A,12,N/A,N/A,12,N/A,12,12,12,12,12,12,12,12,N/A
08-09-2015,00:00:00,251.000000,N/A,-0.002143,0.002750,0.016864,N/A,N/A,N/A,N/A,N/A,0.046875,N/A,N/A,0.060041,N/A,0.076025,0.111748,1.878199,N/A,N/A,N/A,N/A,N/A,N/A,N/A,N/A,N/A,N/A,N/A,N/A,N/A,N/A,N/A,N/A,N/A,3.363910,1.766011,3.313845,3.784569,2.303473,N/A,N/A,11,12,12,N/A,N/A,N/A,N/A,N/A,12,N/A,N/A,12,N/A,12,12,12,12,12,12,12,12,N/A
09-09-2015,00:00:00,252.000000,N/A,0.004540,0.006286,0.015141,N/A,N/A,N/A,N/A,N/A,0.034625,N/A,N/A,0.045430,N/A,0.053600,0.070802,1.616608,N/A,N/A,N/A,N/A,N/A,N/A,N/A,N/A,N/A,N/A,N/A,N/A,N/A,N/A,N/A,N/A,N/A,3.035558,1.564377,2.632981,3.231186,1.638411,N/A,N/A,10,10,10,N/A,N/A,N/A,N/A,N/A,10,N/A,N/A,10,N/A,10,10,10,10,10,10,10,10,N/A
10-09-2015,00:00:00,253.000000,N/A,0.020507,0.036073,0.074773,N/A,N/A,N/A,N/A,N/A,0.146385,N/A,N/A,0.182111,N/A,0.222654,0.272189,1.812434,N/A,N/A,N/A,N/A,N/A,N/A,N/A,N/A,N/A,N/A,N/A,N/A,N/A,N/A,N/A,N/A,N/A,2.431495,1.527273,2.150829,2.578448,1.528979,N/A,N/A,16,16,16,N/A,N/A,N/A,N/A,N/A,16,N/A,N/A,16,N/A,16,16,16,16,16,16,16,16,N/A
12-09-2015,00:00:00,255.000000,N/A,0.022235,0.047584,0.102755,N/A,N/A,N/A,N/A,N/A,0.207561,N/A,N/A,0.258978,N/A,0.320656,0.398178,1.811776,N/A,N/A,N/A,N/A,N/A,N/A,N/A,N/A,N/A,N/A,N/A,N/A,N/A,N/A,N/A,N/A,N/A,2.554473,1.588208,2.245007,2.719547,1.637244,N/A,N/A,12,12,12,N/A,N/A,N/A,N/A,N/A,12,N/A,N/A,12,N/A,12,12,12,12,12,12,12,12,N/A
13-09-2015,00:00:00,256.000000,N/A,0.037339,0.052646,0.083795,N/A,N/A,N/A,N/A,N/A,0.154132,N/A,N/A,0.189078,N/A,0.235258,0.304911,2.899528,N/A,N/A,N/A,N/A,N/A,N/A,N/A,N/A,N/A,N/A,N/A,N/A,N/A,N/A,N/A,N/A,N/A,1.921361,1.532902,1.945903,1.958337,1.788667,N/A,N/A,5,5,5,N/A,N/A,N/A,N/A,N/A,5,N/A,N/A,5,N/A,5,5,5,5,5,5,5,5,N/A
14-09-2015,00:00:00,257.000000,N/A,0.043748,0.058299,0.094550,N/A,N/A,N/A,N/A,N/A,0.170605,N/A,N/A,0.210522,N/A,0.257377,0.302485,2.531237,N/A,N/A,N/A,N/A,N/A,N/A,N/A,N/A,N/A,N/A,N/A,N/A,N/A,N/A,N/A,N/A,N/A,1.943597,1.490566,1.918986,1.985427,1.369089,N/A,N/A,8,8,8,N/A,N/A,N/A,N/A,N/A,8,N/A,N/A,8,N/A,8,8,8,8,8,8,8,8,N/A
19-09-2015,00:00:00,262.000000,N/A,0.007493,0.003642,0.010863,N/A,N/A,N/A,N/A,N/A,0.031339,N/A,N/A,0.041773,N/A,0.052021,0.079264,1.928350,N/A,N/A,N/A,N/A,N/A,N/A,N/A,N/A,N/A,N/A,N/A,N/A,N/A,N/A,N/A,N/A,N/A,2.755921,1.953301,2.776137,2.821582,2.590307,N/A,N/A,7,10,10,N/A,N/A,N/A,N/A,N/A,10,N/A,N/A,10,N/A,10,10,10,10,10,10,7,10,N/A
24-09-2015,00:00:00,267.000000,N/A,0.016770,0.031228,0.063680,N/A,N/A,N/A,N/A,N/A,0.125800,N/A,N/A,0.155477,N/A,0.183445,0.217212,1.689756,N/A,N/A,N/A,N/A,N/A,N/A,N/A,N/A,N/A,N/A,N/A,N/A,N/A,N/A,N/A,N/A,N/A,2.417024,1.360711,2.153535,2.565790,1.237912,N/A,N/A,21,21,21,N/A,N/A,N/A,N/A,N/A,21,N/A,N/A,21,N/A,21,21,21,21,21,21,21,21,N/A
25-09-2015,00:00:00,268.000000,N/A,0.009841,0.016257,0.025007,N/A,N/A,N/A,N/A,N/A,0.053177,N/A,N/A,0.066223,N/A,0.083223,0.128978,1.921043,N/A,N/A,N/A,N/A,N/A,N/A,N/A,N/A,N/A,N/A,N/A,N/A,N/A,N/A,N/A,N/A,N/A,2.615436,1.669542,2.578024,2.736220,2.500869,N/A,N/A,3,3,3,N/A,N/A,N/A,N/A,N/A,3,N/A,N/A,3,N/A,3,3,3,3,3,3,3,3,N/A
26-09-2015,00:00:00,269.000000,N/A,0.035217,0.039481,0.048886,N/A,N/A,N/A,N/A,N/A,0.076619,N/A,N/A,0.091956,N/A,0.108023,0.144139,1.493923,N/A,N/A,N/A,N/A,N/A,N/A,N/A,N/A,N/A,N/A,N/A,N/A,N/A,N/A,N/A,N/A,N/A,1.477094,1.308386,1.690584,1.429655,1.796964,N/A,N/A,10,10,10,N/A,N/A,N/A,N/A,N/A,10,N/A,N/A,10,N/A,10,10,10,10,10,10,10,10,N/A
27-09-2015,00:00:00,270.000000,N/A,0.014239,0.014897,0.019306,N/A,N/A,N/A,N/A,N/A,0.035564,N/A,N/A,0.045098,N/A,0.052923,0.077397,1.336058,N/A,N/A,N/A,N/A,N/A,N/A,N/A,N/A,N/A,N/A,N/A,N/A,N/A,N/A,N/A,N/A,N/A,1.950121,1.543070,2.166468,1.606690,2.101422,N/A,N/A,26,27,27,N/A,N/A,N/A,N/A,N/A,27,N/A,N/A,27,N/A,27,27,27,27,27,27,23,27,N/A
28-09-2015,00:00:00,271.000000,N/A,0.005013,0.004187,0.010722,N/A,N/A,N/A,N/A,N/A,0.028184,N/A,N/A,0.039053,N/A,0.046463,0.063372,1.402390,N/A,N/A,N/A,N/A,N/A,N/A,N/A,N/A,N/A,N/A,N/A,N/A,N/A,N/A,N/A,N/A,N/A,2.928259,1.849250,2.893597,2.768407,1.814973,N/A,N/A,10,11,11,N/A,N/A,N/A,N/A,N/A,11,N/A,N/A,11,N/A,11,11,11,11,11,11,9,11,N/A
29-09-2015,00:00:00,272.000000,N/A,0.001104,0.002495,0.006333,N/A,N/A,N/A,N/A,N/A,0.022096,N/A,N/A,0.031861,N/A,0.037898,0.052337,1.395333,N/A,N/A,N/A,N/A,N/A,N/A,N/A,N/A,N/A,N/A,N/A,N/A,N/A,N/A,N/A,N/A,N/A,3.301606,1.982643,3.425712,3.049028,1.859771,N/A,N/A,6,6,6,N/A,N/A,N/A,N/A,N/A,6,N/A,N/A,6,N/A,6,6,6,6,6,6,4,6,N/A
30-09-2015,00:00:00,273.000000,N/A,0.007375,0.010663,0.019863,N/A,N/A,N/A,N/A,N/A,0.045588,N/A,N/A,0.061144,N/A,0.073259,0.094123,1.445385,N/A,N/A,N/A,N/A,N/A,N/A,N/A,N/A,N/A,N/A,N/A,N/A,N/A,N/A,N/A,N/A,N/A,2.722143,1.708352,2.730245,2.772015,1.612568,N/A,N/A,10,10,10,N/A,N/A,N/A,N/A,N/A,10,N/A,N/A,10,N/A,10,10,10,10,10,10,10,10,N/A
01-10-2015,00:00:00,274.000000,N/A,0.010779,0.014633,0.023396,N/A,N/A,N/A,N/A,N/A,0.052487,N/A,N/A,0.073208,N/A,0.090781,0.109817,0.872410,N/A,N/A,N/A,N/A,N/A,N/A,N/A,N/A,N/A,N/A,N/A,N/A,N/A,N/A,N/A,N/A,N/A,2.557880,1.979379,2.769676,2.505880,1.562497,N/A,N/A,13,13,13,N/A,N/A,N/A,N/A,N/A,13,N/A,N/A,13,N/A,13,13,13,13,13,13,13,13,N/A
02-10-2015,00:00:00,275.000000,N/A,0.001668,0.004901,0.010109,N/A,N/A,N/A,N/A,N/A,0.031084,N/A,N/A,0.043842,N/A,0.054327,0.077840,0.743673,N/A,N/A,N/A,N/A,N/A,N/A,N/A,N/A,N/A,N/A,N/A,N/A,N/A,N/A,N/A,N/A,N/A,3.038282,2.067297,3.229873,2.930991,2.236360,N/A,N/A,9,10,10,N/A,N/A,N/A,N/A,N/A,10,N/A,N/A,10,N/A,10,10,10,10,10,10,8,10,N/A
03-10-2015,00:00:00,276.000000,N/A,0.007214,0.017504,0.038164,N/A,N/A,N/A,N/A,N/A,0.085583,N/A,N/A,0.110466,N/A,0.138005,0.182704,1.858481,N/A,N/A,N/A,N/A,N/A,N/A,N/A,N/A,N/A,N/A,N/A,N/A,N/A,N/A,N/A,N/A,N/A,2.780861,1.732316,2.555947,2.923042,1.866227,N/A,N/A,21,21,21,N/A,N/A,N/A,N/A,N/A,21,N/A,N/A,21,N/A,21,21,21,21,21,21,21,21,N/A
04-10-2015,00:00:00,277.000000,N/A,0.040996,0.056447,0.092364,N/A,N/A,N/A,N/A,N/A,0.163409,N/A,N/A,0.199462,N/A,0.237956,0.280507,2.270967,N/A,N/A,N/A,N/A,N/A,N/A,N/A,N/A,N/A,N/A,N/A,N/A,N/A,N/A,N/A,N/A,N/A,1.887956,1.359437,1.839198,1.939276,1.285275,N/A,N/A,5,5,5,N/A,N/A,N/A,N/A,N/A,5,N/A,N/A,5,N/A,5,5,5,5,5,5,5,5,N/A
05-10-2015,00:00:00,278.000000,N/A,0.068430,0.102838,0.175423,N/A,N/A,N/A,N/A,N/A,0.298795,N/A,N/A,0.356050,N/A,0.411333,0.462862,1.912168,N/A,N/A,N/A,N/A,N/A,N/A,N/A,N/A,N/A,N/A,N/A,N/A,N/A,N/A,N/A,N/A,N/A,1.866470,1.157758,1.706530,1.961091,0.997859,N/A,N/A,19,19,19,N/A,N/A,N/A,N/A,N/A,19,N/A,N/A,19,N/A,19,19,19,19,19,19,19,19,N/A
10-10-2015,00:00:00,283.000000,N/A,0.011936,0.015191,0.033722,N/A,N/A,N/A,N/A,N/A,0.070322,N/A,N/A,0.093330,N/A,0.114011,0.150723,0.920262,N/A,N/A,N/A,N/A,N/A,N/A,N/A,N/A,N/A,N/A,N/A,N/A,N/A,N/A,N/A,N/A,N/A,2.784587,1.758545,2.488163,2.917713,1.791087,N/A,N/A,14,14,14,N/A,N/A,N/A,N/A,N/A,14,N/A,N/A,14,N/A,14,14,14,14,14,14,14,14,N/A
11-10-2015,00:00:00,284.000000,N/A,0.002315,0.003524,0.018893,N/A,N/A,N/A,N/A,N/A,0.048838,N/A,N/A,0.068413,N/A,0.084852,0.117481,0.584816,N/A,N/A,N/A,N/A,N/A,N/A,N/A,N/A,N/A,N/A,N/A,N/A,N/A,N/A,N/A,N/A,N/A,3.303090,1.989045,3.139875,3.482681,1.986092,N/A,N/A,24,24,24,N/A,N/A,N/A,N/A,N/A,24,N/A,N/A,24,N/A,24,24,24,24,24,24,24,24,N/A
12-10-2015,00:00:00,285.000000,N/A,0.018210,0.024002,0.050201,N/A,N/A,N/A,N/A,N/A,0.101960,N/A,N/A,0.134436,N/A,0.165058,0.206468,0.578464,N/A,N/A,N/A,N/A,N/A,N/A,N/A,N/A,N/A,N/A,N/A,N/A,N/A,N/A,N/A,N/A,N/A,2.763130,1.763187,2.426434,2.895153,1.644783,N/A,N/A,29,29,29,N/A,N/A,N/A,N/A,N/A,29,N/A,N/A,29,N/A,29,29,29,29,29,29,29,29,N/A
24-10-2015,00:00:00,297.000000,N/A,0.073402,0.073800,0.079985,N/A,N/A,N/A,N/A,N/A,0.102492,N/A,N/A,0.118255,N/A,0.131171,0.155865,1.188284,N/A,N/A,N/A,N/A,N/A,N/A,N/A,N/A,N/A,N/A,N/A,N/A,N/A,N/A,N/A,N/A,N/A,0.711864,0.888970,0.913635,0.616003,1.017631,N/A,N/A,10,10,10,N/A,N/A,N/A,N/A,N/A,10,N/A,N/A,10,N/A,10,10,10,10,10,10,10,10,N/A
26-10-2015,00:00:00,299.000000,0.071501,0.061986,0.061986,0.063289,N/A,N/A,N/A,N/A,N/A,0.073071,N/A,N/A,0.079013,N/A,0.080221,0.095933,1.254586,N/A,N/A,N/A,N/A,N/A,N/A,N/A,N/A,N/A,N/A,N/A,N/A,N/A,N/A,N/A,N/A,N/A,0.380550,0.335951,0.530756,0.318188,0.699229,N/A,6,6,6,6,N/A,N/A,N/A,N/A,N/A,6,N/A,N/A,6,N/A,6,6,6,6,6,6,6,6,N/A
27-10-2015,00:00:00,300.000000,0.040799,0.083220,0.105745,0.149802,N/A,N/A,N/A,N/A,N/A,0.229767,N/A,N/A,0.266053,N/A,0.281116,0.319474,1.129422,N/A,N/A,N/A,N/A,N/A,N/A,N/A,N/A,N/A,N/A,N/A,N/A,N/A,N/A,N/A,N/A,N/A,1.383655,0.721759,1.376226,1.414236,0.677928,N/A,28,28,28,28,N/A,N/A,N/A,N/A,N/A,28,N/A,N/A,28,N/A,28,28,28,28,28,28,28,28,N/A
28-10-2015,00:00:00,301.000000,0.048983,0.109604,0.140105,0.202024,N/A,N/A,N/A,N/A,N/A,0.306596,N/A,N/A,0.354939,N/A,0.385149,0.431454,1.053895,N/A,N/A,N/A,N/A,N/A,N/A,N/A,N/A,N/A,N/A,N/A,N/A,N/A,N/A,N/A,N/A,N/A,1.385952,0.822368,1.347928,1.422780,0.735099,N/A,20,20,20,20,N/A,N/A,N/A,N/A,N/A,20,N/A,N/A,20,N/A,20,20,20,20,20,20,20,20,N/A
29-10-2015,00:00:00,302.000000,0.112805,0.226824,0.282234,0.385878,N/A,N/A,N/A,N/A,N/A,0.529545,N/A,N/A,0.585543,N/A,0.614628,0.659240,1.286789,N/A,N/A,N/A,N/A,N/A,N/A,N/A,N/A,N/A,N/A,N/A,N/A,N/A,N/A,N/A,N/A,N/A,1.090281,0.537315,1.003764,1.145860,0.446187,N/A,23,23,23,23,N/A,N/A,N/A,N/A,N/A,23,N/A,N/A,23,N/A,23,23,23,23,23,23,23,23,N/A
31-10-2015,00:00:00,304.000000,0.050874,0.097622,0.122505,0.162595,N/A,N/A,N/A,N/A,N/A,0.229169,N/A,N/A,0.258036,N/A,0.266547,0.300258,1.127509,N/A,N/A,N/A,N/A,N/A,N/A,N/A,N/A,N/A,N/A,N/A,N/A,N/A,N/A,N/A,N/A,N/A,1.117325,0.561272,1.128763,1.134509,0.604782,N/A,6,6,6,6,N/A,N/A,N/A,N/A,N/A,6,N/A,N/A,6,N/A,6,6,6,6,6,6,6,6,N/A
03-11-2015,00:00:00,307.000000,0.014910,0.032185,0.039094,0.053263,N/A,N/A,N/A,N/A,N/A,0.092599,N/A,N/A,0.116942,N/A,0.124942,0.160080,0.362252,N/A,N/A,N/A,N/A,N/A,N/A,N/A,N/A,N/A,N/A,N/A,N/A,N/A,N/A,N/A,N/A,N/A,1.638404,1.058840,1.854549,1.568817,1.147055,N/A,27,27,27,27,N/A,N/A,N/A,N/A,N/A,27,N/A,N/A,27,N/A,27,27,27,27,27,27,27,27,N/A
